762362 311397 509
211701 717402 509
910565 918255 401
767024 783707 468
437647 352540 449
885547 641444 525
787248 452150 509
785836 798724 468
884624 845559 432
841871 77642 525
905680 888535 401
295241 930577 525
704137 884366 525
37251 349750 443
938232 989460 507
708380 628061 504
443749 742790 509
354116 333508 441
282782 29800 443
27897 702787 509
218087 178231 386
180253 795565 509
323749 830684 509
555025 498964 470
342928 503179 449
700913 639857 442
516851 781958 509
396871 273776 441
112845 307265 443
127108 275680 443
62502 670134 509
395104 330663 441
77230 165594 383
625611 672942 509
515039 271456 470
337501 162351 443
636554 427712 509
50857 195420 383
172194 355280 443
492114 948930 525
845130 257795 525
855630 683861 525
146108 244413 443
931739 228944 525
999226 475923 525
859207 731628 525
598574 355202 470
326688 975782 525
339734 814056 509
874915 372063 525
392984 806490 509
944236 531633 525
881384 272907 525
159659 599894 470
795836 263144 509
815970 802561 406
533974 819635 509
916096 641254 525
999684 905883 507
879101 258264 525
402669 407570 405
129880 300859 443
912684 459375 525
751612 749284 393
188119 250599 443
556323 987832 525
439304 749051 509
288366 675090 509
940628 860728 507
864478 389780 525
164234 792673 509
768444 135673 509
829190 655683 504
780248 108690 509
352452 644967 509
528237 346184 470
91556 787444 509
224935 653726 509
88196 507401 449
505758 944080 525
949024 814776 525
212054 823042 509
453514 153971 449
57109 356948 443
388888 185241 443
892798 170456 525
105181 532822 470
760829 242571 509
573043 882452 525
934720 231319 525
63074 742881 509
811216 984568 525
274959 294001 389
559286 147267 470
212824 151947 383
569111 184850 470
135975 405548 443
216385 797990 509
309428 856054 525
368907 817741 509
354192 163253 443
493314 134124 449
249027 21450 443
475899 265131 449
594824 590992 403
593480 740580 509
310667 181385 443
691375 727640 504
751076 687854 504
461948 880484 525
442416 591364 470
555146 831153 509
188915 374714 443
391480 449973 449
663239 383965 509
283039 935104 525
351432 93450 443
163677 799266 509
282891 822936 509
82484 990421 525
685596 858002 525
121208 286274 443
120029 331318 443
362342 462861 449
726305 409127 509
685038 158112 509
983623 263593 525
75289 652767 509
282558 294825 389
173801 749269 509
830137 60758 509
257009 110364 443
33098 508764 449
822835 29360 509
731696 757362 424
297761 341935 384
207672 216830 386
513079 539360 439
549559 649718 509
507831 714171 509
471808 218319 449
232456 844501 525
958004 124780 525
433834 258049 449
415295 837125 509
817685 860914 525
949824 798047 525
276573 897701 525
516619 496493 470
991915 99877 525
295662 480043 449
756780 820209 468
888365 430118 525
44280 458823 449
474762 373209 449
172659 283755 443
677247 764958 504
271856 571023 470
818442 755863 468
87138 692081 509
565413 683964 509
476428 403177 449
652177 607643 509
495702 680682 509
47730 592815 470
781873 966036 525
631048 146184 509
847881 294276 525
699295 975964 525
208820 283676 443
395941 414044 449
291576 762925 509
227267 492512 449
679191 898264 525
198263 323418 443
52029 541954 470
62496 578691 470
924655 855094 476
583356 97872 470
197505 175910 365
610278 58531 470
84933 470599 449
29512 103113 351
906483 749739 525
834117 994081 525
256753 781924 509
6521 543150 470
506186 825683 509
764533 575548 509
357558 722446 509
347341 588765 470
657193 403654 509
392042 760132 509
753469 873946 525
284726 113537 443
449036 454973 387
357438 124902 443
832999 807059 450
534012 686055 509
457319 880041 525
797053 783491 468
521434 972003 525
838298 905916 445
590505 745105 509
339046 114885 443
436079 151774 449
893372 890372 326
396454 570107 470
833132 23453 509
356208 145373 443
41452 623327 470
905217 809056 525
603957 540116 452
672654 595380 509
655820 458708 509
118951 624346 470
385121 3452 443
903987 98991 525
917487 251747 525
667163 929734 525
628985 926571 525
97559 555147 470
866481 943019 507
288074 383318 441
733106 610114 509
565695 115058 470
