343453 285400
162445 116471
101157 344517
6856 818362
230118 233626
893525 708694
58436 439471
632858 4578
421320 711020
88995 663591
965573 626428
347510 955066
618936 73866
947507 276177
49497 341775
294941 528830
445715 479274
998606 239715
924547 348227
588805 471541
873433 190071
631774 519336
704074 908993
43320 876658
129476 98790
858985 573699
417716 557818
630445 928145
106404 182000
2120 793068
321338 911209
107200 87654
481071 718672
497939 607604
718215 310326
589510 744796
761343 310918
563461 350160
899510 587922
953157 595527
82443 398234
161076 706535
840898 381112
116253 1929
887111 349590
398567 166902
412444 806601
866560 23243
819140 207152
751026 744758
945738 42362
888854 781518
885026 769607
271498 783436
444919 113612
555799 459334
534746 605570
345723 858184
859651 185544
364006 132905
808236 870988
210760 209768
830283 901638
810781 185532
651979 243279
148668 828585
559696 627826
304878 780321
53422 143733
393478 490110
675939 689566
570770 415781
850960 258130
84556 803431
472355 310049
407746 858793
988904 72923
607064 977164
332766 960715
954142 283595
997417 428971
249132 312173
927749 355467
723081 17446
295866 650228
768557 904576
703054 868216
63731 366756
837310 997431
748869 930880
663333 89631
871932 385340
607139 457985
493320 728736
268757 549916
728393 830593
749708 566123
45119 832692
225461 456316
747542 747225
615372 769198
683033 483628
451973 459591
218504 999547
558241 467186
511049 65765
735839 673768
891519 329012
911208 335287
749761 901678
403943 389107
922180 517043
301984 571408
373231 493641
456533 462445
369307 87259
327166 415635
563468 596530
558432 33401
408670 762314
702302 177293
942839 273586
604029 899103
809340 896084
403856 538736
409804 967145
943853 304337
913255 148639
81458 316873
923738 605878
807447 910972
831238 160773
765553 638751
77929 128978
904182 741815
197715 354297
960672 30796
114886 93095
269306 498432
819863 339539
202345 81512
157541 578334
178225 60561
759064 238240
519255 717615
137792 781049
538634 94445
154842 140135
223798 372393
654866 9019
268180 549508
184988 30344
757328 142388
896979 143126
403019 709709
626905 393045
365282 259291
19180 359451
825942 609766
580822 38635
822309 281108
231366 675141
709933 81628
368096 148843
404941 663974
180025 472158
991508 350311
897759 174033
17598 837278
20952 3189
661700 347259
520214 288998
827765 925929
504368 946861
804015 422635
664572 199420
59677 202409
141290 52990
559392 52745
419875 813099
854697 336117
193761 399733
695097 662816
82839 287448
421132 836968
220902 1922
520336 631079
320431 119108
425811 179239
596586 370214
18147 138224
753619 982074
588893 934075
370721 396334
406190 130739
1428 702769
304476 390563
529190 401808
47804 492072
127116 705524
903434 148081
826553 121946
311631 345211
301228 191448
903244 541461
165968 278137
525580 4252
312325 646137
184537 955532
859292 165027
377537 500205
106372 640556
255551 885351
769746 387018
7737 198174
877294 24080
292445 468231
399115 595791
865702 327799
143469 253116
