878833 281944 525
722953 898665 525
203571 79929 383
412304 112255 449
628558 452224 509
366976 416236 449
161323 438244 449
649236 648103 385
904986 1805 525
928376 414346 525
610300 857461 525
389559 200358 443
264804 974428 525
512471 618813 452
429626 565816 470
653376 198231 509
273759 434163 449
295413 637596 509
941329 890523 507
803795 664307 504
366429 95706 443
842694 695789 525
884922 473842 525
168837 599335 470
837047 193086 509
177835 380598 443
628926 987311 525
944957 244068 525
519951 835703 509
159182 276527 443
430768 588315 470
739040 658053 504
689197 842469 525
513435 584194 452
662280 606826 509
593225 899256 525
878487 697162 525
176045 211100 373
488690 495668 426
741408 534592 509
314848 712261 509
235629 846141 525
911650 584220 525
646593 791994 504
329160 49063 443
354050 205897 443
310894 204027 443
337041 400011 441
648705 710734 504
18452 651268 509
54753 951267 525
573563 410944 470
767514 122383 509
921494 136568 525
384554 416192 449
591336 698585 509
167269 36579 383
124051 380548 443
71984 76927 325
429970 614846 470
926219 974113 507
627381 735180 504
279680 328512 389
11010 502610 449
563069 329803 470
453222 907116 525
427554 769367 509
730962 525487 509
36807 619291 470
135954 691136 509
955110 785117 525
51596 89620 351
594116 687145 509
278983 491749 449
277652 982184 525
330497 5373 443
536760 133136 470
862077 463748 525
424691 784023 509
968004 176988 525
424164 441554 400
447338 899971 525
402852 854740 525
95371 808456 509
394453 866866 525
5739 545626 470
885770 972175 507
476849 780555 509
443987 646548 509
813636 33633 509
193849 780122 509
296408 688187 509
889588 609237 525
498007 892387 525
961275 971382 458
807983 397460 509
181467 394319 443
642071 473245 509
503923 265494 449
570933 885418 525
333967 770239 509
828558 139804 509
206179 414045 449
286448 467007 449
25481 907089 525
307524 493514 449
513548 677984 509
726967 495539 509
445633 430137 400
170501 527260 470
411376 190740 449
913381 816255 525
647786 283671 509
656515 495894 509
278969 461727 449
748728 823094 468
536616 847465 525
613088 645335 509
469216 301837 449
908267 300012 525
952591 578982 525
86276 596277 470
911661 575256 525
641048 310283 509
833555 142299 509
277978 979304 525
345960 837865 525
691140 224009 509
592515 792454 509
600621 523848 452
484958 938095 525
965047 568896 525
429490 439197 400
594179 706179 509
547357 28257 470
931488 641659 525
748209 899841 525
137773 921751 525
175698 155320 383
127345 713606 509
987360 523461 525
24299 77031 351
332920 14255 443
307461 118233 443
392700 986636 525
684546 622739 509
174570 505268 449
954427 69669 525
751269 201550 509
374726 533160 470
492746 758285 509
42229 827135 509
964645 430561 525
205762 12077 383
658556 137400 509
473730 431857 444
363321 396267 436
868134 438929 525
949165 485762 525
454346 692653 509
260492 577980 470
256965 875140 525
651139 875718 525
169067 255298 443
410160 460720 418
529070 813743 509
380631 997354 525
918932 155714 525
586811 738006 509
124303 544123 470
406506 809453 509
624685 204924 470
724096 338859 509
54787 750236 509
141434 662120 509
500190 664753 509
694231 401834 509
212708 831738 509
686822 502600 509
937502 181800 525
659257 413120 509
127731 655904 509
341612 569331 470
671479 411148 509
549400 71789 470
720709 924064 525
874644 465864 525
726145 194970 509
732137 956630 525
948969 419348 525
277043 996970 525
700435 912311 525
298772 148455 443
137595 148907 375
577298 696493 509
875853 648528 525
335015 283463 389
634309 568574 509
619908 188753 470
932509 118363 525
707081 634741 504
432343 370094 449
506748 441302 444
112423 539160 470
465151 936714 525
981717 931052 507
606810 816693 509
285687 476501 449
4673 460177 449
677409 185754 509
726676 478325 509
335581 97498 443
620404 38663 470
324246 46837 443
396686 1062 443
624229 230847 470
526815 827098 509
634200 104437 509
287618 806468 509
735831 792959 468
172852 262205 443
821667 753380 468
668513 715073 504
214984 860581 525
337521 479431 449
727835 608385 509
698571 416520 509
760465 853261 525
368019 747900 509
749414 638637 504
977422 339544 525
294492 229223 443
443978 715317 509
835204 284288 509
427162 115840 449
908617 929138 476
356894 996341 525
851704 485530 525
827772 905051 525
252289 602025 470
227938 686807 509
849974 257711 525
175082 208396 373
635514 285895 509
522636 581681 452
965322 270017 525
937976 305363 525
388375 216451 443
439757 834675 509
272400 270119 407
81896 949188 525
637907 638812 354
936660 763671 525
711163 699920 504
981973 634766 525
843761 352653 525
714084 930730 525
645529 233447 509
980814 385709 525
655211 65920 509
183006 112854 383
138717 873790 525
724283 255996 509
684476 867822 525
902459 638847 525
592244 321333 470
733020 330978 509
645371 380943 509
