32053 49274
330911 866601
779529 260286
46706 950520
375940 69643
912129 413254
235213 690703
587037 688744
300970 739409
474749 698137
565038 879632
200498 828077
572849 595714
768820 518234
518345 520432
340864 458187
267193 587464
628894 111330
48687 20721
508641 576620
937596 325059
912338 312263
973560 900257
622919 173373
655569 82224
852798 749743
2780 645607
16167 394327
883681 861688
565558 837428
226823 119046
625699 883885
976040 220572
698516 415004
992988 782113
339323 983813
906512 629938
114827 244817
366452 107321
323069 872760
652096 307352
453061 453711
453101 179899
783214 411875
193032 89897
139252 849437
955804 519274
498520 739325
661131 849055
804748 334338
381508 165792
247187 479827
313414 765901
21584 905297
591315 668079
286127 702279
632028 483595
328586 613627
688348 721830
868878 882137
891960 587907
215662 821166
783852 775357
47084 321492
759522 932046
677518 427332
652172 411
930659 267716
445903 700834
95294 757333
485867 61188
30483 94025
154044 121958
747418 194602
165544 894778
454345 848386
775541 150137
501812 816845
535134 144924
115395 353858
530946 887085
800192 382660
172857 121538
508385 428423
568024 829763
337094 211872
716204 311521
716124 72893
324141 792384
859830 742828
447860 713315
162889 589021
750945 723800
675580 882421
185184 440817
850344 62277
238856 166017
537438 266780
631786 452635
581184 499247
186413 608627
195714 970924
236541 945139
966699 154481
842884 929976
570131 192540
484369 849485
127524 484196
11490 215379
773246 220207
581660 382564
381472 640922
949763 349782
290475 262135
158810 662656
28868 154904
34224 937943
800232 612768
269813 100745
365100 702791
561902 557843
877394 460825
984536 215243
505016 766474
389856 549756
356277 17586
658809 497961
948064 1894
727354 78641
783362 540855
935969 19684
783941 885230
47294 68786
224173 957686
538317 150271
88744 496221
657343 901541
627008 956344
909359 864606
132940 884603
656295 776348
729564 73115
241403 418908
442497 100649
342614 332394
141012 858880
183994 481939
699703 699580
367716 614805
811285 732664
217477 562445
826887 527795
235988 297349
803977 450852
364661 845413
205478 576604
959822 103712
399324 325145
371159 566047
661081 805535
150475 216610
436098 428297
879233 99941
692456 898337
124062 158045
525395 745459
227572 700240
814661 476757
395501 912088
849903 25523
47915 519003
937838 170222
414852 189612
146604 384414
643236 484240
768341 715265
479358 298251
548253 601034
373211 219149
705602 272642
790657 967282
695353 950573
707070 107349
587997 908927
434397 33128
789516 228047
373074 83084
990542 435180
577510 455096
349673 925457
838278 679559
577226 878165
490263 901515
461768 467554
334625 763918
677392 376254
832448 692654
470317 905097
839067 297708
727142 26892
139122 468048
506741 483154
276401 594883
82812 917993
877687 836267
191529 395745
742706 465662
60102 733204
338744 886689
283628 358414
646898 387935
822259 432794
454209 645302
453613 506968
186006 595978
604407 419567
284354 373167
765078 739131
945349 882301
296363 166686
149823 484226
720434 81415
924284 396984
130860 509313
285859 599101
329591 671466
768249 682410
631562 782843
624582 798935
295417 938744
704740 411020
472487 851047
391047 292079
177631 356817
150075 51568
605161 508257
791048 167341
3167 796826
150996 280174
155635 574306
377211 496681
175171 930096
775800 678521
