608620 621310 447
345224 395489 441
303707 300907 340
940476 345712 525
318330 643529 509
706365 600042 509
978429 739470 525
960424 711706 525
377644 867155 525
83892 268217 443
829088 187622 509
167888 793912 509
321984 110667 443
7148 40688 324
828037 762233 468
695880 354375 509
357151 856835 525
269803 307198 407
530186 118206 470
669166 915932 525
674679 980678 525
601718 273014 470
301808 532663 470
123194 35543 354
581476 533801 452
385623 39158 443
623649 573519 447
136719 822255 509
715243 315176 509
13737 986360 525
164408 808731 509
886568 881518 370
876715 479838 525
293666 155465 443
914825 286684 525
412499 103093 449
971865 806488 525
263162 218781 443
18784 189528 383
527527 971953 525
280283 721866 509
434560 749111 509
515797 318294 470
467167 149673 449
478440 948275 525
590412 188668 470
164238 973542 525
232344 850833 525
523439 569386 452
116170 192783 383
155369 183386 383
509368 94939 449
509626 691089 509
520733 498229 470
892399 51974 525
839697 886839 432
483908 980169 525
659967 879854 525
86994 324807 443
386365 9120 443
291412 696969 509
886288 304568 525
949866 85629 525
980189 842246 507
532900 344964 470
708062 422772 509
729867 902941 525
825622 503236 509
78815 677682 509
335420 515833 470
539639 303751 470
419565 556011 470
56579 779657 509
781321 366696 509
551185 166741 470
799133 253797 509
730385 279220 509
931854 59170 525
94220 923652 525
593087 298277 470
993562 86949 525
686714 656478 442
391097 570295 470
302245 16733 443
202334 918514 525
854127 188009 525
555217 871889 525
232954 608608 470
18387 147692 375
866844 5691 525
386658 243624 441
127022 679789 509
223360 660786 509
302140 777215 509
37502 636118 509
527621 922 470
956741 98650 525
898155 947122 507
604287 886730 525
434666 890193 525
769874 349206 509
228178 912515 525
568364 770314 509
118743 601074 470
12258 268903 443
106579 685067 509
70917 864624 525
944459 708074 525
671151 264469 509
753924 347955 509
760578 946646 525
2238 526810 470
102356 325459 443
391334 887344 525
507611 518481 470
260235 962413 525
860577 66099 525
57642 268999 443
345456 519197 470
799426 497080 509
771101 783672 437
753387 891844 525
508570 865618 525
180503 786972 509
477699 886273 525
28962 892829 525
61989 767505 509
335202 767944 509
62448 433560 449
529851 840464 525
498607 535560 470
759307 644828 504
693483 357529 509
429586 85586 449
494306 387190 449
792567 188367 509
327605 134125 443
584513 828397 509
289555 685716 509
201884 91244 383
13105 917915 525
613270 850168 525
767572 726760 424
649789 128995 509
348029 727273 509
575936 908156 525
128346 452866 449
682730 538910 509
183775 358393 443
101689 942979 525
942552 748818 525
276988 840558 525
516048 437136 470
978387 815993 525
268920 774177 509
339387 114069 443
185965 417483 449
768568 945052 525
927538 666163 525
918592 243457 525
779594 932272 525
890423 354232 525
905324 909849 445
771936 455877 509
31443 192831 383
902451 528993 525
882572 62212 525
535749 350183 470
200405 380840 443
717583 20896 509
809374 739863 468
954509 281122 525
508146 980627 525
507968 323190 449
470496 25327 449
79160 203556 383
692871 887105 525
761184 537769 509
399629 344010 441
87934 488337 449
786751 897199 525
144760 146902 357
349229 349625 304
612526 365656 470
579539 730439 509
941808 308493 525
131 103422 351
941477 626025 525
364582 838131 525
666375 402603 509
108608 121200 349
954922 470347 525
952556 329820 525
514072 826566 509
308839 537257 470
589409 568674 434
439240 338342 449
188590 106848 383
713077 578835 509
940123 83976 525
912302 446888 525
79244 324907 443
4334 954509 525
494109 799071 509
404152 892158 525
302660 225304 443
530555 983299 525
387115 936347 525
263312 150848 443
8735 226001 386
651608 639274 416
331371 13586 443
608967 484249 470
665161 229724 509
263488 877537 525
205362 87944 383
645425 54608 509
100197 607611 470
151883 669552 509
927415 510967 525
75095 870885 525
977740 256088 525
340644 38770 443
401851 566547 470
514824 86885 470
761723 187658 509
540165 239670 470
165312 761855 509
933027 660532 525
866663 300432 525
436026 82560 449
980480 168363 525
176137 290912 443
59125 909407 525
913625 84289 525
116489 887200 525
748809 400373 509
888500 842986 445
157486 28418 383
103772 242504 443
837653 115983 509
590333 899304 525
965715 984865 458
839201 723073 525
268674 496642 449
860403 717510 525
385141 471527 449
484673 41559 449
413415 500648 444
388489 319999 441
379021 882806 525
69808 628931 509
934633 724707 525
333071 333236 291
