857712 15845
698577 413119
84087 284754
126347 456912
556542 747964
286055 686288
15437 491109
993056 741768
696287 747773
663547 965328
161849 61414
170696 35575
626981 997262
805954 399216
901374 671115
566488 149492
760205 175830
677585 746981
871474 287740
102637 163615
950416 180286
388557 976713
320678 147326
917239 238026
330150 169211
190328 766173
699319 503507
240430 458397
541520 721936
57759 594732
391572 133930
441580 144639
84257 570078
815135 646109
150500 103753
420480 301970
992072 903328
709447 493930
797190 296424
615359 713965
935675 939678
852435 300363
586215 53940
568392 47380
699150 126078
679703 876313
331078 766704
965739 621373
466920 965987
373737 74906
793490 674324
606285 694937
192929 524281
758721 322462
4217 582448
785104 685159
182213 851374
284334 332809
129822 974807
971452 302392
817157 241706
307536 76318
860422 718375
404276 399175
784528 332925
565658 207792
107605 238287
951623 135743
511385 856345
767002 800179
805642 699364
563105 253492
698906 333039
552780 953640
835534 267386
97626 383652
817717 130385
54825 357019
925129 266445
715342 552114
521719 264035
934341 441387
602564 127987
121651 589584
747418 624290
620085 561709
728143 841054
954668 237830
825377 578605
16316 24803
783225 831002
866779 374033
836876 427900
163506 173702
495673 371482
675330 144292
432377 634422
967326 231003
400755 688320
372533 249355
68626 101452
271445 349126
553115 893720
692292 34601
612 352690
537166 446255
19917 18486
883044 561984
158651 272112
134568 378531
218957 316407
206016 843740
21893 146003
901636 125928
877330 188661
753366 269911
251774 615138
765689 297347
359536 17806
785046 192435
571892 884422
313908 459938
975463 540253
800762 118224
385958 696493
729631 148565
283298 230933
357423 262766
13785 539197
157763 573196
634091 984300
503571 780380
35746 158794
410336 666073
506895 780993
116308 837665
325679 423894
20627 780912
993521 506012
732178 670714
643324 96072
727366 916850
658506 967286
330027 229062
382097 179313
462339 524796
824103 201896
499400 289988
605879 151133
119944 645198
850776 16282
389170 430237
619805 734340
981239 330257
559375 795666
148313 407567
46119 185765
706399 192421
597092 568647
515163 946287
545767 433613
574384 582929
692700 36684
511045 474508
660342 141220
871755 328805
780819 549947
803385 612018
251311 784957
381608 880191
435340 14029
721879 986679
363859 869744
876198 783216
851805 142964
343122 844890
916219 899396
667433 114490
253057 67234
252493 732257
742853 315223
233687 405209
519699 544523
94042 719739
472628 926099
745374 257921
104241 568922
310975 35637
539867 722316
574827 608413
569930 770660
135117 414726
488736 936240
921325 773389
855970 572913
978146 719255
674562 279550
427514 963620
13161 918720
806631 192085
791269 231007
916204 585334
896725 726336
138207 381609
340646 688230
798774 449501
347689 101716
252980 701295
349481 30766
14849 72483
700096 615561
719307 312869
